{
    "name": "AccountRecovery",
    "alias": "accountrecovery",
    "description": "",
    "keywords": [],
    "priority": 0,
    "providers": [
        "Modules\\AccountRecovery\\Providers\\AccountRecoveryServiceProvider"
    ],
    "aliases": {},
    "files": [],
    "requires": []
}
