{
    "name": "Operation",
    "alias": "operation",
    "description": "",
    "keywords": [],
    "priority": 0,
    "providers": [
        "Modules\\Operation\\Providers\\OperationServiceProvider"
    ],
    "aliases": {},
    "files": [],
    "requires": []
}
